biplotEZ
…
Although two-dimensional scatter diagrams are crucial for presenting data, multidimensional scatter diagrams tend not to be.

Statisticians therefore, developed methods for approximating multidimensional scatter diagrams into a biplot.

A biplot is a generalisation of a two-dimensional scatter diagram of data that exists in a higher dimensional space, where information on both samples and variables can be displayed graphically.

Gabriel (1971) introduced the biplot in which the samples are represented as \(n\) points and the variables are represented as \(p\) vectors relative to the same axes and origin.

Iris data

library(tibble)
tibble(iris)

# # A tibble: 150 × 5
#    Sepal.Length Sepal.Width Petal.Length
#           <dbl>       <dbl>        <dbl>
#  1          5.1         3.5          1.4
#  2          4.9         3            1.4
#  3          4.7         3.2          1.3
#  4          4.6         3.1          1.5
#  5          5           3.6          1.4
#  6          5.4         3.9          1.7
#  7          4.6         3.4          1.4
#  8          5           3.4          1.5
#  9          4.4         2.9          1.4
# 10          4.9         3.1          1.5
# # ℹ 140 more rows
# # ℹ 2 more variables: Petal.Width <dbl>,
# #   Species <fct>
…
